app_dsc_demo/app_dsc_demo.vcd
$date
  Wed Apr 20 15:12:50 2011
$end

$version
  Xcore C-Simulator + VcdTrace plugin (interface version: 1.7)
$end

$timescale
  2.000000 ns
$end

$var wire 32 po00a0 stdcore[0]_XS1_PORT_32A $end
$var wire 1 po00b0 stdcore[0]_XS1_PORT_32A_inuse $end
$var wire 1 po00c0 stdcore[0]_XS1_PORT_32A_tWaiting $end
$var wire 1 po00d0 stdcore[0]_XS1_PORT_32A_direction $end
$var wire 32 po00l0 stdcore[0]_XS1_PORT_32A_outputThreadPc $end
$var wire 32 po00m0 stdcore[0]_XS1_PORT_32A_portDetails $end
$var wire 16 po00a1 stdcore[0]_XS1_PORT_16A $end
$var wire 1 po00b1 stdcore[0]_XS1_PORT_16A_inuse $end
$var wire 1 po00c1 stdcore[0]_XS1_PORT_16A_tWaiting $end
$var wire 1 po00d1 stdcore[0]_XS1_PORT_16A_direction $end
$var wire 32 po00l1 stdcore[0]_XS1_PORT_16A_outputThreadPc $end
$var wire 32 po00m1 stdcore[0]_XS1_PORT_16A_portDetails $end
$var wire 16 po00a2 stdcore[0]_XS1_PORT_16B $end
$var wire 1 po00b2 stdcore[0]_XS1_PORT_16B_inuse $end
$var wire 1 po00c2 stdcore[0]_XS1_PORT_16B_tWaiting $end
$var wire 1 po00d2 stdcore[0]_XS1_PORT_16B_direction $end
$var wire 32 po00l2 stdcore[0]_XS1_PORT_16B_outputThreadPc $end
$var wire 32 po00m2 stdcore[0]_XS1_PORT_16B_portDetails $end
$var wire 8 po00a3 stdcore[0]_XS1_PORT_8A $end
$var wire 1 po00b3 stdcore[0]_XS1_PORT_8A_inuse $end
$var wire 1 po00c3 stdcore[0]_XS1_PORT_8A_tWaiting $end
$var wire 1 po00d3 stdcore[0]_XS1_PORT_8A_direction $end
$var wire 32 po00l3 stdcore[0]_XS1_PORT_8A_outputThreadPc $end
$var wire 32 po00m3 stdcore[0]_XS1_PORT_8A_portDetails $end
$var wire 8 po00a4 stdcore[0]_XS1_PORT_8B $end
$var wire 1 po00b4 stdcore[0]_XS1_PORT_8B_inuse $end
$var wire 1 po00c4 stdcore[0]_XS1_PORT_8B_tWaiting $end
$var wire 1 po00d4 stdcore[0]_XS1_PORT_8B_direction $end
$var wire 32 po00l4 stdcore[0]_XS1_PORT_8B_outputThreadPc $end
$var wire 32 po00m4 stdcore[0]_XS1_PORT_8B_portDetails $end
$var wire 8 po00a5 stdcore[0]_XS1_PORT_8C $end
$var wire 1 po00b5 stdcore[0]_XS1_PORT_8C_inuse $end
$var wire 1 po00c5 stdcore[0]_XS1_PORT_8C_tWaiting $end
$var wire 1 po00d5 stdcore[0]_XS1_PORT_8C_direction $end
$var wire 32 po00l5 stdcore[0]_XS1_PORT_8C_outputThreadPc $end
$var wire 32 po00m5 stdcore[0]_XS1_PORT_8C_portDetails $end
$var wire 8 po00a6 stdcore[0]_XS1_PORT_8D $end
$var wire 1 po00b6 stdcore[0]_XS1_PORT_8D_inuse $end
$var wire 1 po00c6 stdcore[0]_XS1_PORT_8D_tWaiting $end
$var wire 1 po00d6 stdcore[0]_XS1_PORT_8D_direction $end
$var wire 32 po00l6 stdcore[0]_XS1_PORT_8D_outputThreadPc $end
$var wire 32 po00m6 stdcore[0]_XS1_PORT_8D_portDetails $end
$var wire 4 po00a7 stdcore[0]_XS1_PORT_4A $end
$var wire 1 po00b7 stdcore[0]_XS1_PORT_4A_inuse $end
$var wire 1 po00c7 stdcore[0]_XS1_PORT_4A_tWaiting $end
$var wire 1 po00d7 stdcore[0]_XS1_PORT_4A_direction $end
$var wire 32 po00l7 stdcore[0]_XS1_PORT_4A_outputThreadPc $end
$var wire 32 po00m7 stdcore[0]_XS1_PORT_4A_portDetails $end
$var wire 4 po00a8 stdcore[0]_XS1_PORT_4B $end
$var wire 1 po00b8 stdcore[0]_XS1_PORT_4B_inuse $end
$var wire 1 po00c8 stdcore[0]_XS1_PORT_4B_tWaiting $end
$var wire 1 po00d8 stdcore[0]_XS1_PORT_4B_direction $end
$var wire 32 po00l8 stdcore[0]_XS1_PORT_4B_outputThreadPc $end
$var wire 32 po00m8 stdcore[0]_XS1_PORT_4B_portDetails $end
$var wire 4 po00a9 stdcore[0]_XS1_PORT_4C $end
$var wire 1 po00b9 stdcore[0]_XS1_PORT_4C_inuse $end
$var wire 1 po00c9 stdcore[0]_XS1_PORT_4C_tWaiting $end
$var wire 1 po00d9 stdcore[0]_XS1_PORT_4C_direction $end
$var wire 32 po00l9 stdcore[0]_XS1_PORT_4C_outputThreadPc $end
$var wire 32 po00m9 stdcore[0]_XS1_PORT_4C_portDetails $end
$var wire 4 po00a10 stdcore[0]_XS1_PORT_4D $end
$var wire 1 po00b10 stdcore[0]_XS1_PORT_4D_inuse $end
$var wire 1 po00c10 stdcore[0]_XS1_PORT_4D_tWaiting $end
$var wire 1 po00d10 stdcore[0]_XS1_PORT_4D_direction $end
$var wire 32 po00l10 stdcore[0]_XS1_PORT_4D_outputThreadPc $end
$var wire 32 po00m10 stdcore[0]_XS1_PORT_4D_portDetails $end
$var wire 4 po00a11 stdcore[0]_XS1_PORT_4E $end
$var wire 1 po00b11 stdcore[0]_XS1_PORT_4E_inuse $end
$var wire 1 po00c11 stdcore[0]_XS1_PORT_4E_tWaiting $end
$var wire 1 po00d11 stdcore[0]_XS1_PORT_4E_direction $end
$var wire 32 po00l11 stdcore[0]_XS1_PORT_4E_outputThreadPc $end
$var wire 32 po00m11 stdcore[0]_XS1_PORT_4E_portDetails $end
$var wire 4 po00a12 stdcore[0]_XS1_PORT_4F $end
$var wire 1 po00b12 stdcore[0]_XS1_PORT_4F_inuse $end
$var wire 1 po00c12 stdcore[0]_XS1_PORT_4F_tWaiting $end
$var wire 1 po00d12 stdcore[0]_XS1_PORT_4F_direction $end
$var wire 32 po00l12 stdcore[0]_XS1_PORT_4F_outputThreadPc $end
$var wire 32 po00m12 stdcore[0]_XS1_PORT_4F_portDetails $end
$var wire 1 po00a13 stdcore[0]_XS1_PORT_1A $end
$var wire 1 po00b13 stdcore[0]_XS1_PORT_1A_inuse $end
$var wire 1 po00c13 stdcore[0]_XS1_PORT_1A_tWaiting $end
$var wire 1 po00d13 stdcore[0]_XS1_PORT_1A_direction $end
$var wire 32 po00l13 stdcore[0]_XS1_PORT_1A_outputThreadPc $end
$var wire 32 po00m13 stdcore[0]_XS1_PORT_1A_portDetails $end
$var wire 1 po00a14 stdcore[0]_XS1_PORT_1B $end
$var wire 1 po00b14 stdcore[0]_XS1_PORT_1B_inuse $end
$var wire 1 po00c14 stdcore[0]_XS1_PORT_1B_tWaiting $end
$var wire 1 po00d14 stdcore[0]_XS1_PORT_1B_direction $end
$var wire 32 po00l14 stdcore[0]_XS1_PORT_1B_outputThreadPc $end
$var wire 32 po00m14 stdcore[0]_XS1_PORT_1B_portDetails $end
$var wire 1 po00a15 stdcore[0]_XS1_PORT_1C $end
$var wire 1 po00b15 stdcore[0]_XS1_PORT_1C_inuse $end
$var wire 1 po00c15 stdcore[0]_XS1_PORT_1C_tWaiting $end
$var wire 1 po00d15 stdcore[0]_XS1_PORT_1C_direction $end
$var wire 32 po00l15 stdcore[0]_XS1_PORT_1C_outputThreadPc $end
$var wire 32 po00m15 stdcore[0]_XS1_PORT_1C_portDetails $end
$var wire 1 po00a16 stdcore[0]_XS1_PORT_1D $end
$var wire 1 po00b16 stdcore[0]_XS1_PORT_1D_inuse $end
$var wire 1 po00c16 stdcore[0]_XS1_PORT_1D_tWaiting $end
$var wire 1 po00d16 stdcore[0]_XS1_PORT_1D_direction $end
$var wire 32 po00l16 stdcore[0]_XS1_PORT_1D_outputThreadPc $end
$var wire 32 po00m16 stdcore[0]_XS1_PORT_1D_portDetails $end
$var wire 1 po00a17 stdcore[0]_XS1_PORT_1E $end
$var wire 1 po00b17 stdcore[0]_XS1_PORT_1E_inuse $end
$var wire 1 po00c17 stdcore[0]_XS1_PORT_1E_tWaiting $end
$var wire 1 po00d17 stdcore[0]_XS1_PORT_1E_direction $end
$var wire 32 po00l17 stdcore[0]_XS1_PORT_1E_outputThreadPc $end
$var wire 32 po00m17 stdcore[0]_XS1_PORT_1E_portDetails $end
$var wire 1 po00a18 stdcore[0]_XS1_PORT_1F $end
$var wire 1 po00b18 stdcore[0]_XS1_PORT_1F_inuse $end
$var wire 1 po00c18 stdcore[0]_XS1_PORT_1F_tWaiting $end
$var wire 1 po00d18 stdcore[0]_XS1_PORT_1F_direction $end
$var wire 32 po00l18 stdcore[0]_XS1_PORT_1F_outputThreadPc $end
$var wire 32 po00m18 stdcore[0]_XS1_PORT_1F_portDetails $end
$var wire 1 po00a19 stdcore[0]_XS1_PORT_1G $end
$var wire 1 po00b19 stdcore[0]_XS1_PORT_1G_inuse $end
$var wire 1 po00c19 stdcore[0]_XS1_PORT_1G_tWaiting $end
$var wire 1 po00d19 stdcore[0]_XS1_PORT_1G_direction $end
$var wire 32 po00l19 stdcore[0]_XS1_PORT_1G_outputThreadPc $end
$var wire 32 po00m19 stdcore[0]_XS1_PORT_1G_portDetails $end
$var wire 1 po00a20 stdcore[0]_XS1_PORT_1H $end
$var wire 1 po00b20 stdcore[0]_XS1_PORT_1H_inuse $end
$var wire 1 po00c20 stdcore[0]_XS1_PORT_1H_tWaiting $end
$var wire 1 po00d20 stdcore[0]_XS1_PORT_1H_direction $end
$var wire 32 po00l20 stdcore[0]_XS1_PORT_1H_outputThreadPc $end
$var wire 32 po00m20 stdcore[0]_XS1_PORT_1H_portDetails $end
$var wire 1 po00a21 stdcore[0]_XS1_PORT_1I $end
$var wire 1 po00b21 stdcore[0]_XS1_PORT_1I_inuse $end
$var wire 1 po00c21 stdcore[0]_XS1_PORT_1I_tWaiting $end
$var wire 1 po00d21 stdcore[0]_XS1_PORT_1I_direction $end
$var wire 32 po00l21 stdcore[0]_XS1_PORT_1I_outputThreadPc $end
$var wire 32 po00m21 stdcore[0]_XS1_PORT_1I_portDetails $end
$var wire 1 po00a22 stdcore[0]_XS1_PORT_1J $end
$var wire 1 po00b22 stdcore[0]_XS1_PORT_1J_inuse $end
$var wire 1 po00c22 stdcore[0]_XS1_PORT_1J_tWaiting $end
$var wire 1 po00d22 stdcore[0]_XS1_PORT_1J_direction $end
$var wire 32 po00l22 stdcore[0]_XS1_PORT_1J_outputThreadPc $end
$var wire 32 po00m22 stdcore[0]_XS1_PORT_1J_portDetails $end
$var wire 1 po00a23 stdcore[0]_XS1_PORT_1K $end
$var wire 1 po00b23 stdcore[0]_XS1_PORT_1K_inuse $end
$var wire 1 po00c23 stdcore[0]_XS1_PORT_1K_tWaiting $end
$var wire 1 po00d23 stdcore[0]_XS1_PORT_1K_direction $end
$var wire 32 po00l23 stdcore[0]_XS1_PORT_1K_outputThreadPc $end
$var wire 32 po00m23 stdcore[0]_XS1_PORT_1K_portDetails $end
$var wire 1 po00a24 stdcore[0]_XS1_PORT_1L $end
$var wire 1 po00b24 stdcore[0]_XS1_PORT_1L_inuse $end
$var wire 1 po00c24 stdcore[0]_XS1_PORT_1L_tWaiting $end
$var wire 1 po00d24 stdcore[0]_XS1_PORT_1L_direction $end
$var wire 32 po00l24 stdcore[0]_XS1_PORT_1L_outputThreadPc $end
$var wire 32 po00m24 stdcore[0]_XS1_PORT_1L_portDetails $end
$var wire 1 po00a25 stdcore[0]_XS1_PORT_1M $end
$var wire 1 po00b25 stdcore[0]_XS1_PORT_1M_inuse $end
$var wire 1 po00c25 stdcore[0]_XS1_PORT_1M_tWaiting $end
$var wire 1 po00d25 stdcore[0]_XS1_PORT_1M_direction $end
$var wire 32 po00l25 stdcore[0]_XS1_PORT_1M_outputThreadPc $end
$var wire 32 po00m25 stdcore[0]_XS1_PORT_1M_portDetails $end
$var wire 1 po00a26 stdcore[0]_XS1_PORT_1N $end
$var wire 1 po00b26 stdcore[0]_XS1_PORT_1N_inuse $end
$var wire 1 po00c26 stdcore[0]_XS1_PORT_1N_tWaiting $end
$var wire 1 po00d26 stdcore[0]_XS1_PORT_1N_direction $end
$var wire 32 po00l26 stdcore[0]_XS1_PORT_1N_outputThreadPc $end
$var wire 32 po00m26 stdcore[0]_XS1_PORT_1N_portDetails $end
$var wire 1 po00a27 stdcore[0]_XS1_PORT_1O $end
$var wire 1 po00b27 stdcore[0]_XS1_PORT_1O_inuse $end
$var wire 1 po00c27 stdcore[0]_XS1_PORT_1O_tWaiting $end
$var wire 1 po00d27 stdcore[0]_XS1_PORT_1O_direction $end
$var wire 32 po00l27 stdcore[0]_XS1_PORT_1O_outputThreadPc $end
$var wire 32 po00m27 stdcore[0]_XS1_PORT_1O_portDetails $end
$var wire 1 po00a28 stdcore[0]_XS1_PORT_1P $end
$var wire 1 po00b28 stdcore[0]_XS1_PORT_1P_inuse $end
$var wire 1 po00c28 stdcore[0]_XS1_PORT_1P_tWaiting $end
$var wire 1 po00d28 stdcore[0]_XS1_PORT_1P_direction $end
$var wire 32 po00l28 stdcore[0]_XS1_PORT_1P_outputThreadPc $end
$var wire 32 po00m28 stdcore[0]_XS1_PORT_1P_portDetails $end
$var wire 32 po00a29 stdcore[0]_XS1_PORT_32B $end
$var wire 1 po00b29 stdcore[0]_XS1_PORT_32B_inuse $end
$var wire 1 po00c29 stdcore[0]_XS1_PORT_32B_tWaiting $end
$var wire 1 po00d29 stdcore[0]_XS1_PORT_32B_direction $end
$var wire 32 po00l29 stdcore[0]_XS1_PORT_32B_outputThreadPc $end
$var wire 32 po00m29 stdcore[0]_XS1_PORT_32B_portDetails $end
$var wire 16 po00a30 stdcore[0]_XS1_PORT_16C $end
$var wire 1 po00b30 stdcore[0]_XS1_PORT_16C_inuse $end
$var wire 1 po00c30 stdcore[0]_XS1_PORT_16C_tWaiting $end
$var wire 1 po00d30 stdcore[0]_XS1_PORT_16C_direction $end
$var wire 32 po00l30 stdcore[0]_XS1_PORT_16C_outputThreadPc $end
$var wire 32 po00m30 stdcore[0]_XS1_PORT_16C_portDetails $end
$var wire 16 po00a31 stdcore[0]_XS1_PORT_16D $end
$var wire 1 po00b31 stdcore[0]_XS1_PORT_16D_inuse $end
$var wire 1 po00c31 stdcore[0]_XS1_PORT_16D_tWaiting $end
$var wire 1 po00d31 stdcore[0]_XS1_PORT_16D_direction $end
$var wire 32 po00l31 stdcore[0]_XS1_PORT_16D_outputThreadPc $end
$var wire 32 po00m31 stdcore[0]_XS1_PORT_16D_portDetails $end

$enddefinitions $end

$dumpvars
b00000000000000000000000000000000 po00a0
0po00b0
0po00c0
0po00d0
b00000000000000000000000000000000 po00l0
b00000000000000000010000000000000 po00m0
b0000000000000000 po00a1
0po00b1
0po00c1
0po00d1
b00000000000000000000000000000000 po00l1
b00000000000000000001000000000000 po00m1
b0000000000000000 po00a2
0po00b2
0po00c2
0po00d2
b00000000000000000000000000000000 po00l2
b00000000000000000001000000000001 po00m2
b00000000 po00a3
0po00b3
0po00c3
0po00d3
b00000000000000000000000000000000 po00l3
b00000000000000000000100000000000 po00m3
b00000000 po00a4
0po00b4
0po00c4
0po00d4
b00000000000000000000000000000000 po00l4
b00000000000000000000100000000001 po00m4
b00000000 po00a5
0po00b5
0po00c5
0po00d5
b00000000000000000000000000000000 po00l5
b00000000000000000000100000000010 po00m5
b00000000 po00a6
0po00b6
0po00c6
0po00d6
b00000000000000000000000000000000 po00l6
b00000000000000000000100000000011 po00m6
b0000 po00a7
0po00b7
0po00c7
0po00d7
b00000000000000000000000000000000 po00l7
b00000000000000000000010000000000 po00m7
b0000 po00a8
0po00b8
0po00c8
0po00d8
b00000000000000000000000000000000 po00l8
b00000000000000000000010000000001 po00m8
b0000 po00a9
0po00b9
0po00c9
0po00d9
b00000000000000000000000000000000 po00l9
b00000000000000000000010000000010 po00m9
b0000 po00a10
0po00b10
0po00c10
0po00d10
b00000000000000000000000000000000 po00l10
b00000000000000000000010000000011 po00m10
b0000 po00a11
0po00b11
0po00c11
0po00d11
b00000000000000000000000000000000 po00l11
b00000000000000000000010000000100 po00m11
b0000 po00a12
0po00b12
0po00c12
0po00d12
b00000000000000000000000000000000 po00l12
b00000000000000000000010000000101 po00m12
0po00a13
0po00b13
0po00c13
0po00d13
b00000000000000000000000000000000 po00l13
b00000000000000000000000100000010 po00m13
0po00a14
0po00b14
0po00c14
0po00d14
b00000000000000000000000000000000 po00l14
b00000000000000000000000100000000 po00m14
0po00a15
0po00b15
0po00c15
0po00d15
b00000000000000000000000000000000 po00l15
b00000000000000000000000100000001 po00m15
0po00a16
0po00b16
0po00c16
0po00d16
b00000000000000000000000000000000 po00l16
b00000000000000000000000100000011 po00m16
0po00a17
0po00b17
0po00c17
0po00d17
b00000000000000000000000000000000 po00l17
b00000000000000000000000100000110 po00m17
0po00a18
0po00b18
0po00c18
0po00d18
b00000000000000000000000000000000 po00l18
b00000000000000000000000100000100 po00m18
0po00a19
0po00b19
0po00c19
0po00d19
b00000000000000000000000000000000 po00l19
b00000000000000000000000100000101 po00m19
0po00a20
0po00b20
0po00c20
0po00d20
b00000000000000000000000000000000 po00l20
b00000000000000000000000100000111 po00m20
0po00a21
0po00b21
0po00c21
0po00d21
b00000000000000000000000000000000 po00l21
b00000000000000000000000100001010 po00m21
0po00a22
0po00b22
0po00c22
0po00d22
b00000000000000000000000000000000 po00l22
b00000000000000000000000100001000 po00m22
0po00a23
0po00b23
0po00c23
0po00d23
b00000000000000000000000000000000 po00l23
b00000000000000000000000100001001 po00m23
0po00a24
0po00b24
0po00c24
0po00d24
b00000000000000000000000000000000 po00l24
b00000000000000000000000100001011 po00m24
0po00a25
0po00b25
0po00c25
0po00d25
b00000000000000000000000000000000 po00l25
b00000000000000000000000100001100 po00m25
0po00a26
0po00b26
0po00c26
0po00d26
b00000000000000000000000000000000 po00l26
b00000000000000000000000100001101 po00m26
0po00a27
0po00b27
0po00c27
0po00d27
b00000000000000000000000000000000 po00l27
b00000000000000000000000100001110 po00m27
0po00a28
0po00b28
0po00c28
0po00d28
b00000000000000000000000000000000 po00l28
b00000000000000000000000100001111 po00m28
b00000000000000000000000000000000 po00a29
0po00b29
0po00c29
0po00d29
b00000000000000000000000000000000 po00l29
b00000000000000000010000000000001 po00m29
b0000000000000000 po00a30
0po00b30
0po00c30
0po00d30
b00000000000000000000000000000000 po00l30
b00000000000000000001000000000010 po00m30
b0000000000000000 po00a31
0po00b31
0po00c31
0po00d31
b00000000000000000000000000000000 po00l31
b00000000000000000001000000000011 po00m31
$end

#13699
1po00b1

#13747
1po00b17

#13795
1po00b23

#13843
1po00b18

#13891
1po00b19

#13939
1po00b20

#14003
1po00b21

#14067
1po00b22

#14131
1po00b24

#14195
1po00b2

